[78,20]
[74,27]
[70,34]
[63,44]
[59,51]
[55,56]
[50,66]
[88,56]
[95,60]
[101,66]
[83,67]
[75,73]
[80,77]
[87,83]
[92,86]
[98,89]
[107,76]
[107,83]
[107,90]
[107,98]
[135,64]
[135,71]
[135,80]
[135,87]
[135,97]
[136,103]
[136,111]
[136,118]
[74,109]
[79,112]
[85,115]
[92,119]
[96,124]
[102,129]
[109,140]
[109,147]
[109,157]
[109,163]
[136,130]
[136,137]
[136,148]
[135,159]
[140,160]
[147,160]
[60,165]
[55,171]
[52,177]
[47,184]
[43,190]
[41,205]
[41,212]
[40,220]
[42,227]
[42,233]
[41,243]
[192,159]
[198,159]
[204,159]
[210,159]
[216,159]
[224,159]
[229,159]
[234,159]
[240,160]
[247,159]
[253,159]
[259,159]
[264,159]
[272,160]
[278,161]
[283,160]
[289,160]
[315,170]
[316,178]
[316,197]
[79,192]
[84,192]
[89,192]
[96,192]
[101,192]
[106,193]
[114,192]
[120,192]
[125,192]
[135,192]
[140,191]
[146,191]
[156,191]
[161,191]
[166,191]
[167,208]
[161,208]
[155,207]
[146,207]
[141,207]
[135,206]
[126,207]
[120,207]
[115,207]
[108,207]
[101,207]
[90,207]
[84,206]
[79,206]
[73,206]
[69,206]
[191,192]
[197,192]
[204,192]
[209,191]
[216,191]
[223,192]
[228,192]
[233,192]
[238,192]
[247,191]
[252,192]
[257,191]
[263,192]
[271,191]
[276,191]
[281,191]
[287,191]
[281,206]
[271,206]
[263,206]
[258,207]
[252,206]
[247,206]
[238,206]
[233,206]
[228,205]
[223,205]
[215,205]
[210,206]
[204,206]
[198,206]
[191,205]
[63,244]
[70,237]
[74,238]
[80,238]
[91,238]
[96,237]
[100,237]
[106,237]
[115,237]
[121,237]
[126,237]
[135,237]
[141,237]
[146,237]
[155,238]
[161,237]
[167,237]
[167,252]
[162,252]
[155,252]
[147,252]
[141,251]
[136,252]
[126,251]
[121,252]
[115,251]
[106,251]
[101,252]
[96,252]
[91,251]
[82,252]
[71,252]
[192,238]
[198,237]
[204,237]
[210,237]
[216,237]
[223,237]
[228,237]
[234,236]
[239,237]
[233,249]
[223,252]
[216,252]
[210,252]
[204,253]
[198,252]
[191,252]
[51,283]
[57,283]
[67,283]
[96,283]
[102,282]
[107,283]
[115,282]
[121,283]
[126,283]
[134,283]
[141,282]
[146,283]
[155,282]
[161,282]
[167,282]
[175,283]
[180,283]
[185,283]
[192,283]
[199,283]
[206,282]
[211,176]
[110,194]
[132,192]
[60,46]
[60,46]
[76,22]
[134,194]
[90,12]
[22,12]
[114,282]
[268,210]
[164,208]
[212,284]
[204,288]
[162,254]
[146,240]
[160,189]
[162,161]
[61,164]
[55,171]
[55,172]
[57,171]
[58,172]
[58,172]
[58,173]
[57,175]
[52,168]
[56,173]
[148,160]
[51,66]
[78,20]
[135,103]
[135,96]
[135,86]
[134,78]
[105,98]
[77,19]
[73,26]
[136,95]
[149,160]
[79,113]
[73,108]
[79,113]
[42,206]
[102,191]
[108,207]
[272,190]
[136,236]
[215,238]
[96,282]
[161,281]
[206,283]
[200,282]
[206,283]
[212,282]
[158,238]
[302,164]
[330,180]
[57,178]
[52,185]
[112,109]
[111,118]
[112,127]
[112,139]
[112,161]
[185,160]
